{
  "project_info": {
    "project_number": "930471368922",
    "firebase_url": "https://paragraph-2f5c1-default-rtdb.firebaseio.com",
    "project_id": "paragraph-2f5c1",
    "storage_bucket": "paragraph-2f5c1.appspot.com"
  },
  "client": [
    {
      "client_info": {
        "mobilesdk_app_id": "1:930471368922:android:48f09e3d09944b7f28ede3",
        "android_client_info": {
          "package_name": "com.rizqi.paragraph"
        }
      },
      "oauth_client": [
        {
          "client_id": "930471368922-cf5m02g9j741gqbt50n5s95j4ak48eq3.apps.googleusercontent.com",
          "client_type": 1,
          "android_info": {
            "package_name": "com.rizqi.paragraph",
            "certificate_hash": "37039a1611faf232302b67e181ffcc2038cd78bc"
          }
        },
        {
          "client_id": "930471368922-c67gm74tf60apbu98f5vil4mfjindcu5.apps.googleusercontent.com",
          "client_type": 3
        }
      ],
      "api_key": [
        {
          "current_key": "AIzaSyAVsyri2GeK1a2rYKBeEg3_syBYmXSpsqU"
        }
      ],
      "services": {
        "appinvite_service": {
          "other_platform_oauth_client": [
            {
              "client_id": "930471368922-c67gm74tf60apbu98f5vil4mfjindcu5.apps.googleusercontent.com",
              "client_type": 3
            }
          ]
        }
      }
    }
  ],
  "configuration_version": "1"
}